…
2 Import data

batch_number <- "_batch3"

# ARGs (Antibiotic Resistance Genes)
args_data_filepath <- paste0("data/results/args_calling/args_table", batch_number, ".csv")
args_data <- read_csv(args_data_filepath, col_types = cols("sample_name" = col_character()))
## Fix/extract name of samples
args_data <- args_data %>%
  mutate(sample_name = str_extract(sample_name, "^\\w+.\\d+"))
args_data

## # A tibble: 6,306 x 162
##    sample_name    NarA  NarB aac(3~1 aac(3~2 aac(6~3 aac(6~4 aadA1 aadA2 aadE-~5
##    <chr>         <dbl> <dbl>   <dbl>   <dbl>   <dbl>   <dbl> <dbl> <dbl>   <dbl>
##  1 GCA_01263718~     0     0       0       0       0       0     0     0       0
##  2 GCA_01263728~     0     0       0       0       0       0     0     0       0
##  3 GCA_01263731~     0     0       0       0       0       0     0     0       0
##  4 GCA_01263738~     0     0       0       0       0       0     0     0       0
##  5 GCA_01263742~     0     0       0       0       0       0     0     0       0
##  6 GCA_01263744~     0     0       0       0       0       0     0     0       0
##  7 GCA_01263748~     0     0       0       0       0       0     0     0       0
##  8 GCA_01263786~     0     0       0       0       0       0     0     0       0
##  9 GCA_01264252~     0     0       0       0       0       0     0     0       0
## 10 GCA_01264264~     0     0       0       0       0       0     0     0       0
## # ... with 6,296 more rows, 152 more variables: `ant(2'')-Ia` <dbl>,
## #   `ant(6)-Ia` <dbl>, `aph(2'')-Ia` <dbl>, `aph(2'')-Ic` <dbl>,
## #   `aph(2'')-If` <dbl>, `aph(2'')-Ig` <dbl>, `aph(3'')-Ib` <dbl>,
## #   `aph(3')-III` <dbl>, `aph(3')-IIa` <dbl>, `aph(3')-Ia` <dbl>,
## #   `aph(6)-Ic` <dbl>, `aph(6)-Id` <dbl>, `blaCMY-2` <dbl>, `blaHERA-3` <dbl>,
## #   `blaOXA-184` <dbl>, `blaOXA-193` <dbl>, `blaOXA-448` <dbl>,
## #   `blaOXA-449` <dbl>, `blaOXA-450` <dbl>, `blaOXA-451` <dbl>, ...
…
## Rows: 22136 Columns: 9
## -- Column specification --------------------------------------------------------
## Delimiter: "\t"
## chr (6): chrom, ref, alt, tgt, gene_name, sample_name
## dbl (3): pos, gene_pos, tax_id
## 
## i Use `spec()` to retrieve the full column specification for this data.
## i Specify the column types or set `show_col_types = FALSE` to quiet this message.

# Fix/extract name of samples
snps_data <- snps_data %>%
  mutate(sample_name = str_extract(sample_name, "^\\w+.\\d+"))
snps_data

## # A tibble: 22,136 x 9
##    chrom             pos ref   alt   tgt   gene_name   gene_pos tax_id sample_~1
##    <chr>           <dbl> <chr> <chr> <chr> <chr>          <dbl>  <dbl> <chr>    
##  1 NZ_KB944666.1 2170478 A     G     A/G   WMS_RS13655      234   1351 1351.853 
##  2 NZ_KB944666.1 2170481 C     T     C/T   WMS_RS13655      237   1351 1351.853 
##  3 NZ_KB944666.1 2170493 T     C     T/C   WMS_RS13655      249   1351 1351.853 
##  4 NZ_KB944666.1 2170505 T     G     T/G   WMS_RS13655      261   1351 1351.853 
##  5 NZ_KB944666.1 2170514 G     A     G/A   WMS_RS13655      270   1351 1351.853 
##  6 NZ_KB944666.1 2170548 A     G     A/G   WMS_RS13655      304   1351 1351.853 
##  7 NZ_KB944666.1 2170556 C     T     C/T   WMS_RS13655      312   1351 1351.853 
##  8 NZ_KB944666.1 2170559 T     C     T/C   WMS_RS13655      315   1351 1351.853 
##  9 NZ_KB944666.1 2170562 C     G     C/G   WMS_RS13655      318   1351 1351.853 
## 10 NZ_KB944666.1 2170571 A     G     A/G   WMS_RS13655      327   1351 1351.853 
## # ... with 22,126 more rows, and abbreviated variable name 1: sample_name
…
# AMR (Antimicrobial Resistance) labels
amr_labels <- read_csv("data/results/data_collection_ncbi/amr_labels.csv", col_types = cols("SampleID" = col_character()))
amr_labels

## # A tibble: 6,242 x 23
##    SampleID     amikacin amoxi~1 ampic~2 cefox~3 cefti~4 ceftr~5 chlor~6 cipro~7
##    <chr>           <dbl>   <dbl>   <dbl>   <dbl>   <dbl>   <dbl>   <dbl>   <dbl>
##  1 SAMN04256112        0       1       1       1       1       1       0       0
##  2 SAMN04256111        0       0       0       0       0       0       0       0
##  3 SAMN04256110        0       0       0       0       0       0       0       0
##  4 SAMN04256109        0       0       0       0       0       0       0       0
##  5 SAMN04256108        0       0       0       0       0       0       0       0
##  6 SAMN04256107        0       0       1       0       0       0       0       0
##  7 SAMN04256106        0       0       0       0       0       0       0       0
##  8 SAMN04256105        0       1       1       1       1       1       0       0
##  9 SAMN04256104        0       1       1       1       1       1       0       0
## 10 SAMN04256103        0       1       1       1       1       1       0       0
## # ... with 6,232 more rows, 14 more variables: gentamicin <dbl>,
## #   kanamycin <dbl>, `nalidixic acid` <dbl>, streptomycin <dbl>,
## #   sulfisoxazole <dbl>, tetracycline <dbl>,
## #   `trimethoprim-sulfamethoxazole` <dbl>, sulfamethoxazole <dbl>,
## #   azithromycin <dbl>, meropenem <dbl>, clindamycin <dbl>, erythromycin <dbl>,
## #   florfenicol <dbl>, telithromycin <dbl>, and abbreviated variable names
## #   1: `amoxicillin-clavulanic acid`, 2: ampicillin, 3: cefoxitin, ...
# Load NCBI samples metadata
samples_metadata <- read_tsv("data/results/data_collection_ncbi/assembly_accession_ids+tax_ids.txt", col_names = c("biosample_accession", "assembly_accession", "tax_id"))

## Rows: 6208 Columns: 3
## -- Column specification --------------------------------------------------------
## Delimiter: "\t"
## chr (2): biosample_accession, assembly_accession
## dbl (1): tax_id
## 
## i Use `spec()` to retrieve the full column specification for this data.
## i Specify the column types or set `show_col_types = FALSE` to quiet this message.

samples_metadata

## # A tibble: 6,208 x 3
##    biosample_accession assembly_accession tax_id
##    <chr>               <chr>               <dbl>
##  1 SAMN03842331        GCA_006813885.2     28901
##  2 SAMN03988294        GCA_008404065.2     28901
##  3 SAMN05596322        GCA_022569775.1     28901
##  4 SAMN04563576        GCA_020381005.1       562
##  5 SAMN04588431        GCA_008474925.2     28901
##  6 SAMN04530411        GCA_008471245.2     28901
##  7 SAMN04536994        GCA_008471305.2     28901
##  8 SAMN05440588        GCA_008524845.2     28901
##  9 SAMN04605174        GCA_008412045.2     28901
## 10 SAMN04964189        GCA_008474065.2     28901
## # ... with 6,198 more rows
…
1: resistance gene

0: non-resistance gene

3.1.1 Null values detection

# Count number of nulls per sample
args_data %>%
  mutate(nulls = rowSums(is.na(select(., -sample_name)))) %>%
  select(sample_name, nulls) %>%
  arrange(desc(nulls))

## # A tibble: 6,208 x 2
##    sample_name     nulls
##    <chr>           <dbl>
##  1 GCA_012637185.1     0
##  2 GCA_012637285.1     0
##  3 GCA_012637315.1     0
##  4 GCA_012637385.1     0
##  5 GCA_012637425.1     0
##  6 GCA_012637445.1     0
##  7 GCA_012637485.1     0
##  8 GCA_012637865.1     0
##  9 GCA_012642525.1     0
## 10 GCA_012642645.1     0
## # ... with 6,198 more rows

We have no nulls values for ARGs.

3.1.2 Outliers detection

# For each sample, how many resistance genes are present?
args_data %>%
  mutate(count = rowSums(select(., -sample_name))) %>%
  select(sample_name, count) %>%
  arrange(desc(count))

## # A tibble: 6,208 x 2
##    sample_name     count
##    <chr>           <dbl>
##  1 GCA_007758465.1    23
##  2 GCA_008551155.1    21
##  3 GCA_008477615.1    20
##  4 GCA_008469665.1    19
##  5 GCA_007194375.1    19
##  6 GCA_007742235.1    18
##  7 GCA_008478965.1    18
##  8 GCA_008552695.1    18
##  9 GCA_008474545.1    18
## 10 GCA_007763135.1    18
## # ... with 6,198 more rows
…
# Mutate all except sample_name
snps_data_wide <- snps_data_wide %>%
  mutate(across(-c(sample_name), ~ as.numeric(snp_2_num[.x])))

3.2.2 Null values detection

# Count number of nulls per sample in percentage
snps_data_wide %>%
  mutate(nulls = rowSums(select(., -sample_name) == -1) / ncol(select(., -sample_name)) * 100) %>%
  select(sample_name, nulls) %>%
  arrange(desc(nulls))

## # A tibble: 94 x 2
##    sample_name     nulls
##    <chr>           <dbl>
##  1 GCA_005287105.1  97.3
##  2 GCA_005284005.1  97.3
##  3 GCA_012708885.1  97.3
##  4 GCA_012642705.1  97.3
##  5 GCA_012749135.1  97.3
##  6 GCA_012714385.1  97.3
##  7 GCA_012714465.1  97.3
##  8 GCA_012687445.1  97.3
##  9 GCA_012708785.1  97.3
## 10 GCA_004227885.1  97.3
## # ... with 84 more rows

For most of the samples, there is very little coocurrences in terms
of SNPs.

3.2.3 Outliers analysis

# For each sample, how many SNPs are present?
snps_data_wide %>%
  mutate(count = rowSums(select(., -sample_name) > 0)) %>%
  select(sample_name, count) %>%
  arrange(desc(count))

## # A tibble: 94 x 2
##    sample_name     count
##    <chr>           <dbl>
##  1 GCA_012688215.1    12
##  2 GCA_012677385.1     9
##  3 GCA_012642525.1     9
##  4 GCA_012688045.1     8
##  5 GCA_005286905.1     7
##  6 GCA_005294445.1     7
##  7 GCA_012704445.1     6
##  8 GCA_012686285.1     6
##  9 GCA_005292485.1     6
## 10 GCA_008430565.1     6
## # ... with 84 more rows
…
